#64:8
2:1694669384
63:265520616
6:1419652761
42:1543167020
60:179679160
1:327069192
18:1855342436
26:140554839
17:802311974
28:1825942143
30:873164237
40:206356721
14:1958994082
43:1760461738
12:1665639489
40:377751302
16:46875524
6:13232272
22:703018732
14:1045288306
24:1932945554
62:401363800
16:1325707320
29:1354068738
36:218692864
1:240051918
19:950515451
0:844311415
13:562465683
6:1200057266
31:1472817748
34:421165513
7:828006124
63:99871394
3:1094800863
21:1044697034
53:1849826049
42:690440657
47:1053470110
51:556143588
64:1240281643
6:1319353460
5:1941914075
58:1531016853
12:487568129
2:358722888
5:1246314737
61:1039544706
34:1920031547
27:1662900490
54:1957488440
42:1591480643
36:1806701000
54:806048045
25:234430524
14:612738173
28:74899267
32:1726232828
32:290227509
12:664009089
56:1737422624
2:1272985211
22:1858815072
64:954681370
